digraph "C:/Users/livwu/Desktop/Courses/cs3307/Group#Final/gui2/mainwindow.h"
{
 // LATEX_PDF_SIZE
  edge [fontname="Helvetica",fontsize="10",labelfontname="Helvetica",labelfontsize="10"];
  node [fontname="Helvetica",fontsize="10",shape=record];
  Node1 [label="C:/Users/livwu/Desktop\l/Courses/cs3307/Group\l#Final/gui2/mainwindow.h",height=0.2,width=0.4,color="black", fillcolor="grey75", style="filled", fontcolor="black",tooltip=" "];
  Node1 -> Node2 [color="midnightblue",fontsize="10",style="solid",fontname="Helvetica"];
  Node2 [label="QMainWindow",height=0.2,width=0.4,color="grey75", fillcolor="white", style="filled",tooltip=" "];
}
